
Program received signal SIGSEGV: Segmentation fault - invalid memory reference.

Backtrace for this error:

Program received signal SIGSEGV: Segmentation fault - invalid memory reference.

Backtrace for this error:

Program received signal SIGSEGV: Segmentation fault - invalid memory reference.

Program received signal SIGSEGV: Segmentation fault - invalid memory reference.

Backtrace for this error:

Backtrace for this error:
#0  0x7f3d691fb8da
#1  0x7f3d691faae3
#2  0x7f3d68e5283f
#3  0x7f3d68f77b0d
#4  0x55a20f34c560
#5  0x55a20f358963
#6  0x55a20f34b40e
#7  0x7f3d68e3f09a
#8  0x55a20f34b449
#9  0xffffffffffffffff
#0  0x7f90731888da
#1  0x7f9073187ae3
#2  0x7f9072ddf83f
#3  0x7f9072f04b0d
#4  0x562e0f565560
#5  0x562e0f571963
#6  0x562e0f56440e
#7  0x7f9072dcc09a
#8  0x562e0f564449
#9  0xffffffffffffffff
--------------------------------------------------------------------------
Primary job  terminated normally, but 1 process returned
a non-zero exit code. Per user-direction, the job has been aborted.
--------------------------------------------------------------------------
#0  0x7f2b43bba8da
#1  0x7f2b43bb9ae3
#2  0x7f2b4381183f
#3  0x7f2b43936b0d
#4  0x559d2a59f560
#5  0x559d2a5ab963
#6  0x559d2a59e40e
#7  0x7f2b437fe09a
#8  0x559d2a59e449
#9  0xffffffffffffffff
#0  0x7f02051f48da
#1  0x7f02051f3ae3
#2  0x7f0204e4b83f
#3  0x7f0204f70b0d
#4  0x55e9f1b2f560
#5  0x55e9f1b3b963
#6  0x55e9f1b2e40e
#7  0x7f0204e3809a
#8  0x55e9f1b2e449
#9  0xffffffffffffffff
--------------------------------------------------------------------------
mpirun noticed that process rank 3 with PID 10104 on node 10.128.0.35 exited on signal 11 (Segmentation fault).
--------------------------------------------------------------------------
