

 NAS Parallel Benchmarks 3.4 -- IS Benchmark

 Size:  134217728  (class C)
 Iterations:   10
 Number of processes:     8
[PI-INFO] Init time,1,3.462025
[PI-INFO] Init time,2,3.464854
[PI-INFO] Init time,5,3.464638
[PI-INFO] Init time,6,3.467387
[PI-INFO] Init time,4,3.475062
[PI-INFO] Init time,3,3.480012

   iteration
[PI-INFO] Init time,0,3.487625
        1
[PI-INFO] Init time,7,3.483681
[PI-INFO] Paramount Iteration,4,1,3.902216,0.427154
[RU-INFO] Resources Stats,4,1,3.002856,0.451227,213036,0,0,0,1859,21,0,1648,0,0,0,0,2275,48
[NT-INFO] Network Stats,4,1,ens4,17714645871,642157,0,0,0,0,0,0,17277550238,612134,0,0,0,0,0,0
[NT-INFO] Network Stats,4,1,lo,219684,1070,0,0,0,0,0,0,219684,1070,0,0,0,0,0,0
[PI-INFO] Paramount Iteration,2,1,3.914587,0.449733
[RU-INFO] Resources Stats,2,1,3.034100,0.425979,213560,0,0,0,1845,21,0,1656,0,0,0,0,2226,122
[NT-INFO] Network Stats,2,1,ens4,17570497826,655489,0,0,0,0,0,0,17489725269,645857,0,0,0,0,0,0
[NT-INFO] Network Stats,2,1,lo,231986,1118,0,0,0,0,0,0,231986,1118,0,0,0,0,0,0
[PI-INFO] Paramount Iteration,3,1,3.914883,0.434871
[RU-INFO] Resources Stats,3,1,3.008114,0.452619,211576,0,0,0,1858,19,0,800,0,0,0,0,2227,94
[NT-INFO] Network Stats,3,1,ens4,17570497826,655489,0,0,0,0,0,0,17489725269,645857,0,0,0,0,0,0
[NT-INFO] Network Stats,3,1,lo,231986,1118,0,0,0,0,0,0,231986,1118,0,0,0,0,0,0
[PI-INFO] Paramount Iteration,5,1,3.911416,0.446778
[RU-INFO] Resources Stats,5,1,2.996911,0.464422,213204,0,0,0,1870,32,0,2256,0,0,0,0,2268,251
[NT-INFO] Network Stats,5,1,ens4,17714646003,642159,0,0,0,0,0,0,17277614425,612139,0,0,0,0,0,0
[NT-INFO] Network Stats,5,1,lo,219684,1070,0,0,0,0,0,0,219684,1070,0,0,0,0,0,0
[PI-INFO] Paramount Iteration,1,1,3.917148,0.455123
[RU-INFO] Resources Stats,1,1,3.085123,0.382120,211336,0,0,0,1843,29,0,2272,0,0,0,0,2225,86
[NT-INFO] Network Stats,1,1,ens4,17570498753,655493,0,0,0,0,0,0,17489725401,645859,0,0,0,0,0,0
[NT-INFO] Network Stats,1,1,lo,231986,1118,0,0,0,0,0,0,231986,1118,0,0,0,0,0,0
[PI-INFO] Paramount Iteration,6,1,3.915907,0.448520
[RU-INFO] Resources Stats,6,1,3.039187,0.423886,211388,0,0,0,1852,27,0,1416,0,0,0,0,2255,103
[NT-INFO] Network Stats,6,1,ens4,17714646135,642161,0,0,0,0,0,0,17277615187,612143,0,0,0,0,0,0
[NT-INFO] Network Stats,6,1,lo,219684,1070,0,0,0,0,0,0,219684,1070,0,0,0,0,0,0
[PI-INFO] Paramount Iteration,0,1,3.936641,0.449016
[RU-INFO] Resources Stats,0,1,3.044193,0.438331,213640,0,0,0,1859,25,0,1808,0,0,0,0,2224,91
[NT-INFO] Network Stats,0,1,ens4,17570499680,655497,0,0,0,0,0,0,17489725533,645861,0,0,0,0,0,0
[NT-INFO] Network Stats,0,1,lo,231986,1118,0,0,0,0,0,0,231986,1118,0,0,0,0,0,0
        2
[PI-INFO] Paramount Iteration,7,1,3.935046,0.451365
[RU-INFO] Resources Stats,7,1,3.000307,0.484049,213504,0,0,0,1861,22,0,1272,0,0,0,0,2258,76
[NT-INFO] Network Stats,7,1,ens4,17714646267,642163,0,0,0,0,0,0,17277615949,612147,0,0,0,0,0,0
[NT-INFO] Network Stats,7,1,lo,219684,1070,0,0,0,0,0,0,219684,1070,0,0,0,0,0,0
[PI-INFO] Paramount Iteration,1,2,4.345535,0.428387
[RU-INFO] Resources Stats,1,2,3.344597,0.550733,211336,0,0,0,1845,29,0,2272,0,0,0,0,2225,97
[NT-INFO] Network Stats,1,2,ens4,17706717642,662449,0,0,0,0,0,0,17627322155,652244,0,0,0,0,0,0
[NT-INFO] Network Stats,1,2,lo,231986,1118,0,0,0,0,0,0,231986,1118,0,0,0,0,0,0
[PI-INFO] Paramount Iteration,2,2,4.345964,0.431377
[RU-INFO] Resources Stats,2,2,3.312557,0.578191,213560,0,0,0,1846,21,0,1656,0,0,0,0,2226,154
[NT-INFO] Network Stats,2,2,ens4,17706717642,662449,0,0,0,0,0,0,17627322155,652244,0,0,0,0,0,0
[NT-INFO] Network Stats,2,2,lo,231986,1118,0,0,0,0,0,0,231986,1118,0,0,0,0,0,0
[PI-INFO] Paramount Iteration,5,2,4.351880,0.440464
[RU-INFO] Resources Stats,5,2,3.265241,0.635570,213204,0,0,0,1871,32,0,2256,0,0,0,0,2268,284
[NT-INFO] Network Stats,5,2,ens4,17852229535,648877,0,0,0,0,0,0,17413660586,618821,0,0,0,0,0,0
[NT-INFO] Network Stats,5,2,lo,219684,1070,0,0,0,0,0,0,219684,1070,0,0,0,0,0,0
[PI-INFO] Paramount Iteration,4,2,4.353043,0.450827
[RU-INFO] Resources Stats,4,2,3.312677,0.591406,213036,0,0,0,1860,21,0,1648,0,0,0,0,2275,70
[NT-INFO] Network Stats,4,2,ens4,17852229667,648879,0,0,0,0,0,0,17413698614,618826,0,0,0,0,0,0
[NT-INFO] Network Stats,4,2,lo,219684,1070,0,0,0,0,0,0,219684,1070,0,0,0,0,0,0
[PI-INFO] Paramount Iteration,6,2,4.353922,0.438015
[RU-INFO] Resources Stats,6,2,3.316081,0.584014,211388,0,0,0,1855,27,0,1416,0,0,0,0,2255,137
[NT-INFO] Network Stats,6,2,ens4,17852229799,648881,0,0,0,0,0,0,17413817779,618832,0,0,0,0,0,0
[NT-INFO] Network Stats,6,2,lo,219684,1070,0,0,0,0,0,0,219684,1070,0,0,0,0,0,0
[PI-INFO] Paramount Iteration,3,2,4.359784,0.444901
[RU-INFO] Resources Stats,3,2,3.282509,0.620474,211576,0,0,0,1859,19,0,800,0,0,0,0,2227,149
[NT-INFO] Network Stats,3,2,ens4,17706720422,662461,0,0,0,0,0,0,17627322617,652251,0,0,0,0,0,0
[NT-INFO] Network Stats,3,2,lo,231986,1118,0,0,0,0,0,0,231986,1118,0,0,0,0,0,0
[PI-INFO] Paramount Iteration,0,2,4.364371,0.427730
[RU-INFO] Resources Stats,0,2,3.315123,0.594713,213640,0,0,0,1862,25,0,1808,0,0,0,0,2224,108
[NT-INFO] Network Stats,0,2,ens4,17706720422,662461,0,0,0,0,0,0,17627322617,652251,0,0,0,0,0,0
[NT-INFO] Network Stats,0,2,lo,231986,1118,0,0,0,0,0,0,231986,1118,0,0,0,0,0,0
        3
[PI-INFO] Paramount Iteration,7,2,4.362928,0.427882
[RU-INFO] Resources Stats,7,2,3.255256,0.655850,213504,0,0,0,1861,22,0,1272,0,0,0,0,2258,111
[NT-INFO] Network Stats,7,2,ens4,17852229931,648883,0,0,0,0,0,0,17413818541,618836,0,0,0,0,0,0
[NT-INFO] Network Stats,7,2,lo,219684,1070,0,0,0,0,0,0,219684,1070,0,0,0,0,0,0
[PI-INFO] Paramount Iteration,1,3,4.788027,0.442492
[RU-INFO] Resources Stats,1,3,3.609616,0.727550,211336,0,0,0,1848,29,0,2272,0,0,0,0,2225,122
[NT-INFO] Network Stats,1,3,ens4,17845026587,669088,0,0,0,0,0,0,17763584501,658587,0,0,0,0,0,0
[NT-INFO] Network Stats,1,3,lo,231986,1118,0,0,0,0,0,0,231986,1118,0,0,0,0,0,0
[PI-INFO] Paramount Iteration,2,3,4.799543,0.453579
[RU-INFO] Resources Stats,2,3,3.608248,0.735311,213560,0,0,0,1850,21,0,1656,0,0,0,0,2226,189
[NT-INFO] Network Stats,2,3,ens4,17845026587,669088,0,0,0,0,0,0,17763584501,658587,0,0,0,0,0,0
[NT-INFO] Network Stats,2,3,lo,231986,1118,0,0,0,0,0,0,231986,1118,0,0,0,0,0,0
[PI-INFO] Paramount Iteration,6,3,4.796951,0.443029
[RU-INFO] Resources Stats,6,3,3.598607,0.743712,211596,0,0,0,1860,27,0,1416,0,0,0,0,2255,162
[NT-INFO] Network Stats,6,3,ens4,17989146249,655684,0,0,0,0,0,0,17551956605,624667,0,0,0,0,0,0
[NT-INFO] Network Stats,6,3,lo,219684,1070,0,0,0,0,0,0,219684,1070,0,0,0,0,0,0
[PI-INFO] Paramount Iteration,5,3,4.798097,0.446217
[RU-INFO] Resources Stats,5,3,3.562958,0.783373,213336,0,0,0,1876,32,0,2256,0,0,0,0,2268,295
[NT-INFO] Network Stats,5,3,ens4,17989146513,655688,0,0,0,0,0,0,17551957367,624671,0,0,0,0,0,0
[NT-INFO] Network Stats,5,3,lo,219684,1070,0,0,0,0,0,0,219684,1070,0,0,0,0,0,0
[PI-INFO] Paramount Iteration,0,3,4.808295,0.443924
[RU-INFO] Resources Stats,0,3,3.618604,0.734966,213640,0,0,0,1864,25,0,1808,0,0,0,0,2224,114
[NT-INFO] Network Stats,0,3,ens4,17845028441,669096,0,0,0,0,0,0,17763585095,658596,0,0,0,0,0,0
[NT-INFO] Network Stats,0,3,lo,231986,1118,0,0,0,0,0,0,231986,1118,0,0,0,0,0,0
        4
[PI-INFO] Paramount Iteration,7,3,4.804698,0.441770
[RU-INFO] Resources Stats,7,3,3.555018,0.795780,213712,0,0,0,1866,22,0,1272,0,0,0,0,2258,204
[NT-INFO] Network Stats,7,3,ens4,17989146777,655692,0,0,0,0,0,0,17552044741,624677,0,0,0,0,0,0
[NT-INFO] Network Stats,7,3,lo,219684,1070,0,0,0,0,0,0,219684,1070,0,0,0,0,0,0
[PI-INFO] Paramount Iteration,4,3,4.810856,0.457813
[RU-INFO] Resources Stats,4,3,3.593907,0.767553,213168,0,0,0,1865,21,0,1648,0,0,0,0,2275,80
[NT-INFO] Network Stats,4,3,ens4,17989147041,655696,0,0,0,0,0,0,17552045515,624681,0,0,0,0,0,0
[NT-INFO] Network Stats,4,3,lo,219684,1070,0,0,0,0,0,0,219684,1070,0,0,0,0,0,0
[PI-INFO] Paramount Iteration,3,3,4.817575,0.457791
[RU-INFO] Resources Stats,3,3,3.570579,0.787686,211576,0,0,0,1863,19,0,800,0,0,0,0,2227,211
[NT-INFO] Network Stats,3,3,ens4,17845030294,669104,0,0,0,0,0,0,17763585623,658604,0,0,0,0,0,0
[NT-INFO] Network Stats,3,3,lo,231986,1118,0,0,0,0,0,0,231986,1118,0,0,0,0,0,0
[PI-INFO] Paramount Iteration,0,4,5.244774,0.436479
[RU-INFO] Resources Stats,0,4,3.890990,0.898537,213640,0,0,0,1866,25,0,1808,0,0,0,0,2224,134
[NT-INFO] Network Stats,0,4,ens4,17981580888,675662,0,0,0,0,0,0,17900323123,664708,0,0,0,0,0,0
[NT-INFO] Network Stats,0,4,lo,231986,1118,0,0,0,0,0,0,231986,1118,0,0,0,0,0,0
        5
[PI-INFO] Paramount Iteration,7,4,5.240389,0.435691
[RU-INFO] Resources Stats,7,4,3.857556,0.927412,213712,0,0,0,1866,22,0,1272,0,0,0,0,2258,220
[NT-INFO] Network Stats,7,4,ens4,18125311375,662481,0,0,0,0,0,0,17687975366,630760,0,0,0,0,0,0
[NT-INFO] Network Stats,7,4,lo,219684,1070,0,0,0,0,0,0,219684,1070,0,0,0,0,0,0
[PI-INFO] Paramount Iteration,6,4,5.241065,0.444114
[RU-INFO] Resources Stats,6,4,3.873720,0.911463,211596,0,0,0,1860,27,0,1416,0,0,0,0,2255,193
[NT-INFO] Network Stats,6,4,ens4,18125311375,662481,0,0,0,0,0,0,17687975366,630760,0,0,0,0,0,0
[NT-INFO] Network Stats,6,4,lo,219684,1070,0,0,0,0,0,0,219684,1070,0,0,0,0,0,0
[PI-INFO] Paramount Iteration,5,4,5.244542,0.446445
[RU-INFO] Resources Stats,5,4,3.828705,0.953204,213336,0,0,0,1876,32,0,2256,0,0,0,0,2268,508
[NT-INFO] Network Stats,5,4,ens4,18125311705,662486,0,0,0,0,0,0,17688456953,630772,0,0,0,0,0,0
[NT-INFO] Network Stats,5,4,lo,219684,1070,0,0,0,0,0,0,219684,1070,0,0,0,0,0,0
[PI-INFO] Paramount Iteration,1,4,5.253034,0.465007
[RU-INFO] Resources Stats,1,4,3.864177,0.930933,211336,0,0,0,1850,29,0,2272,0,0,0,0,2225,277
[NT-INFO] Network Stats,1,4,ens4,17981583213,675671,0,0,0,0,0,0,17900323717,664717,0,0,0,0,0,0
[NT-INFO] Network Stats,1,4,lo,231986,1118,0,0,0,0,0,0,231986,1118,0,0,0,0,0,0
[PI-INFO] Paramount Iteration,2,4,5.255023,0.455480
[RU-INFO] Resources Stats,2,4,3.894764,0.903424,213560,0,0,0,1852,21,0,1656,0,0,0,0,2226,217
[NT-INFO] Network Stats,2,4,ens4,17981583213,675671,0,0,0,0,0,0,17900323717,664717,0,0,0,0,0,0
[NT-INFO] Network Stats,2,4,lo,231986,1118,0,0,0,0,0,0,231986,1118,0,0,0,0,0,0
[PI-INFO] Paramount Iteration,4,4,5.254938,0.444082
[RU-INFO] Resources Stats,4,4,3.868088,0.936021,213168,0,0,0,1865,21,0,1648,0,0,0,0,2275,159
[NT-INFO] Network Stats,4,4,ens4,18125311969,662490,0,0,0,0,0,0,17688525957,630777,0,0,0,0,0,0
[NT-INFO] Network Stats,4,4,lo,219684,1070,0,0,0,0,0,0,219684,1070,0,0,0,0,0,0
[PI-INFO] Paramount Iteration,3,4,5.259755,0.442180
[RU-INFO] Resources Stats,3,4,3.822510,0.975619,211576,0,0,0,1865,19,0,800,0,0,0,0,2227,321
[NT-INFO] Network Stats,3,4,ens4,17981584140,675675,0,0,0,0,0,0,17900323981,664721,0,0,0,0,0,0
[NT-INFO] Network Stats,3,4,lo,231986,1118,0,0,0,0,0,0,231986,1118,0,0,0,0,0,0
[PI-INFO] Paramount Iteration,1,5,5.653026,0.399992
[RU-INFO] Resources Stats,1,5,4.133732,1.058492,211336,0,0,0,1853,29,0,2272,0,0,0,0,2225,366
[NT-INFO] Network Stats,1,5,ens4,18112518595,682278,0,0,0,0,0,0,18040112660,670695,0,0,0,0,0,0
[NT-INFO] Network Stats,1,5,lo,231986,1118,0,0,0,0,0,0,231986,1118,0,0,0,0,0,0
[PI-INFO] Paramount Iteration,6,5,5.676021,0.434956
[RU-INFO] Resources Stats,6,5,4.143096,1.074727,211596,0,0,0,1863,27,0,1416,0,0,0,0,2255,281
[NT-INFO] Network Stats,6,5,ens4,18265120741,669046,0,0,0,0,0,0,17824609461,637301,0,0,0,0,0,0
[NT-INFO] Network Stats,6,5,lo,219684,1070,0,0,0,0,0,0,219684,1070,0,0,0,0,0,0
[PI-INFO] Paramount Iteration,2,5,5.680524,0.425501
[RU-INFO] Resources Stats,2,5,4.152137,1.069185,213560,0,0,0,1855,21,0,1656,0,0,0,0,2226,254
[NT-INFO] Network Stats,2,5,ens4,18117735896,682397,0,0,0,0,0,0,18040119524,670799,0,0,0,0,0,0
[NT-INFO] Network Stats,2,5,lo,231986,1118,0,0,0,0,0,0,231986,1118,0,0,0,0,0,0
[PI-INFO] Paramount Iteration,5,5,5.679816,0.435274
[RU-INFO] Resources Stats,5,5,4.084157,1.129406,213336,0,0,0,1879,32,0,2256,0,0,0,0,2268,600
[NT-INFO] Network Stats,5,5,ens4,18265121005,669050,0,0,0,0,0,0,17824610223,637305,0,0,0,0,0,0
[NT-INFO] Network Stats,5,5,lo,219684,1070,0,0,0,0,0,0,219684,1070,0,0,0,0,0,0
[PI-INFO] Paramount Iteration,0,5,5.686233,0.441459
[RU-INFO] Resources Stats,0,5,4.153322,1.074411,213640,0,0,0,1869,25,0,1808,0,0,0,0,2224,165
[NT-INFO] Network Stats,0,5,ens4,18117736823,682401,0,0,0,0,0,0,18040119722,670802,0,0,0,0,0,0
[NT-INFO] Network Stats,0,5,lo,231986,1118,0,0,0,0,0,0,231986,1118,0,0,0,0,0,0
        6
[PI-INFO] Paramount Iteration,4,5,5.683696,0.428758
[RU-INFO] Resources Stats,4,5,4.136289,1.096076,213168,0,0,0,1868,21,0,1648,0,0,0,0,2275,169
[NT-INFO] Network Stats,4,5,ens4,18265121269,669054,0,0,0,0,0,0,17824638329,637309,0,0,0,0,0,0
[NT-INFO] Network Stats,4,5,lo,219684,1070,0,0,0,0,0,0,219684,1070,0,0,0,0,0,0
[PI-INFO] Paramount Iteration,7,5,5.683581,0.443192
[RU-INFO] Resources Stats,7,5,4.148423,1.075073,213712,0,0,0,1869,22,0,1272,0,0,0,0,2258,323
[NT-INFO] Network Stats,7,5,ens4,18265121533,669058,0,0,0,0,0,0,17824729269,637314,0,0,0,0,0,0
[NT-INFO] Network Stats,7,5,lo,219684,1070,0,0,0,0,0,0,219684,1070,0,0,0,0,0,0
[PI-INFO] Paramount Iteration,3,5,5.689647,0.429892
[RU-INFO] Resources Stats,3,5,4.091291,1.134694,211576,0,0,0,1868,19,0,800,0,0,0,0,2227,381
[NT-INFO] Network Stats,3,5,ens4,18117738677,682409,0,0,0,0,0,0,18040120316,670811,0,0,0,0,0,0
[NT-INFO] Network Stats,3,5,lo,231986,1118,0,0,0,0,0,0,231986,1118,0,0,0,0,0,0
[PI-INFO] Paramount Iteration,6,6,6.336306,0.660285
[RU-INFO] Resources Stats,6,6,4.489304,1.387167,211596,0,0,0,1863,27,0,1416,0,0,0,0,2255,335
[NT-INFO] Network Stats,6,6,ens4,18402793883,675275,0,0,0,0,0,0,17949789435,643392,0,0,0,0,0,0
[NT-INFO] Network Stats,6,6,lo,219684,1070,0,0,0,0,0,0,219684,1070,0,0,0,0,0,0
[PI-INFO] Paramount Iteration,0,6,6.350020,0.663787
[RU-INFO] Resources Stats,0,6,4.508309,1.382548,213640,0,0,0,1869,25,0,1808,0,0,0,0,2224,193
[NT-INFO] Network Stats,0,6,ens4,18243012142,688868,0,0,0,0,0,0,18177759410,676866,0,0,0,0,0,0
[NT-INFO] Network Stats,0,6,lo,231986,1118,0,0,0,0,0,0,231986,1118,0,0,0,0,0,0
        7
[PI-INFO] Paramount Iteration,7,6,6.354809,0.671228
[RU-INFO] Resources Stats,7,6,4.499385,1.394569,213712,0,0,0,1869,22,0,1272,0,0,0,0,2258,340
[NT-INFO] Network Stats,7,6,ens4,18402794147,675279,0,0,0,0,0,0,17949790016,643396,0,0,0,0,0,0
[NT-INFO] Network Stats,7,6,lo,219684,1070,0,0,0,0,0,0,219684,1070,0,0,0,0,0,0
[PI-INFO] Paramount Iteration,5,6,6.492054,0.812238
[RU-INFO] Resources Stats,5,6,4.536744,1.488370,213336,0,0,0,1879,32,0,2256,0,0,0,0,2268,622
[NT-INFO] Network Stats,5,6,ens4,18402817399,675611,0,0,0,0,0,0,17962623394,643823,0,0,0,0,0,0
[NT-INFO] Network Stats,5,6,lo,219684,1070,0,0,0,0,0,0,219684,1070,0,0,0,0,0,0
[PI-INFO] Paramount Iteration,3,6,6.497141,0.807494
[RU-INFO] Resources Stats,3,6,4.489778,1.541863,211576,0,0,0,1868,19,0,800,0,0,0,0,2227,411
[NT-INFO] Network Stats,3,6,ens4,18255723286,689243,0,0,0,0,0,0,18177783028,677203,0,0,0,0,0,0
[NT-INFO] Network Stats,3,6,lo,231986,1118,0,0,0,0,0,0,231986,1118,0,0,0,0,0,0
[PI-INFO] Paramount Iteration,4,6,6.499608,0.815912
[RU-INFO] Resources Stats,4,6,4.555086,1.491700,213168,0,0,0,1868,21,0,1648,0,0,0,0,2275,223
[NT-INFO] Network Stats,4,6,ens4,18402817663,675615,0,0,0,0,0,0,17962624074,643826,0,0,0,0,0,0
[NT-INFO] Network Stats,4,6,lo,219684,1070,0,0,0,0,0,0,219684,1070,0,0,0,0,0,0
[PI-INFO] Paramount Iteration,2,6,6.506925,0.826401
[PI-INFO] Paramount Iteration,1,6,6.507010,0.853984
[RU-INFO] Resources Stats,1,6,4.554070,1.491297,211336,0,0,0,1853,29,0,2272,0,0,0,0,2225,397
[NT-INFO] Network Stats,1,6,ens4,18255724213,689247,0,0,0,0,0,0,18177783292,677207,0,0,0,0,0,0
[NT-INFO] Network Stats,1,6,lo,231986,1118,0,0,0,0,0,0,231986,1118,0,0,0,0,0,0
[RU-INFO] Resources Stats,2,6,4.584317,1.462481,213560,0,0,0,1855,21,0,1656,0,0,0,0,2226,294
[NT-INFO] Network Stats,2,6,ens4,18255724213,689247,0,0,0,0,0,0,18177783292,677207,0,0,0,0,0,0
[NT-INFO] Network Stats,2,6,lo,231986,1118,0,0,0,0,0,0,231986,1118,0,0,0,0,0,0
[PI-INFO] Paramount Iteration,1,7,6.958502,0.451492
[RU-INFO] Resources Stats,1,7,4.817264,1.679229,211336,0,0,0,1853,29,0,2272,0,0,0,0,2225,416
[NT-INFO] Network Stats,1,7,ens4,18375683179,695360,0,0,0,0,0,0,18307822756,683275,0,0,0,0,0,0
[NT-INFO] Network Stats,1,7,lo,231986,1118,0,0,0,0,0,0,231986,1118,0,0,0,0,0,0
[PI-INFO] Paramount Iteration,2,7,7.120039,0.613114
[RU-INFO] Resources Stats,2,7,4.928173,1.731086,213560,0,0,0,1855,21,0,1656,0,0,0,0,2226,317
[NT-INFO] Network Stats,2,7,ens4,18392224393,695861,0,0,0,0,0,0,18316446406,683768,0,0,0,0,0,0
[NT-INFO] Network Stats,2,7,lo,231986,1118,0,0,0,0,0,0,231986,1118,0,0,0,0,0,0
[PI-INFO] Paramount Iteration,6,7,7.123915,0.787609
[RU-INFO] Resources Stats,6,7,4.890245,1.769917,211596,0,0,0,1863,27,0,1416,0,0,0,0,2255,351
[NT-INFO] Network Stats,6,7,ens4,18541884983,682391,0,0,0,0,0,0,18099038407,649892,0,0,0,0,0,0
[NT-INFO] Network Stats,6,7,lo,219684,1070,0,0,0,0,0,0,219684,1070,0,0,0,0,0,0
[PI-INFO] Paramount Iteration,5,7,7.127411,0.635357
[RU-INFO] Resources Stats,5,7,4.848813,1.811338,213336,0,0,0,1879,32,0,2256,0,0,0,0,2268,631
[NT-INFO] Network Stats,5,7,ens4,18541885247,682395,0,0,0,0,0,0,18099038922,649895,0,0,0,0,0,0
[NT-INFO] Network Stats,5,7,lo,219684,1070,0,0,0,0,0,0,219684,1070,0,0,0,0,0,0
[PI-INFO] Paramount Iteration,7,7,7.128579,0.773770
[RU-INFO] Resources Stats,7,7,4.891804,1.774478,213712,0,0,0,1869,22,0,1272,0,0,0,0,2258,355
[NT-INFO] Network Stats,7,7,ens4,18541885511,682399,0,0,0,0,0,0,18099039849,649899,0,0,0,0,0,0
[NT-INFO] Network Stats,7,7,lo,219684,1070,0,0,0,0,0,0,219684,1070,0,0,0,0,0,0
[PI-INFO] Paramount Iteration,0,7,7.134069,0.784049
[RU-INFO] Resources Stats,0,7,4.991657,1.682581,213640,0,0,0,1869,25,0,1808,0,0,0,0,2224,220
[NT-INFO] Network Stats,0,7,ens4,18392227174,695873,0,0,0,0,0,0,18316447198,683780,0,0,0,0,0,0
[NT-INFO] Network Stats,0,7,lo,231986,1118,0,0,0,0,0,0,231986,1118,0,0,0,0,0,0
        8
[PI-INFO] Paramount Iteration,4,7,7.130970,0.631362
[RU-INFO] Resources Stats,4,7,4.877339,1.799018,213168,0,0,0,1868,21,0,1648,0,0,0,0,2275,310
[NT-INFO] Network Stats,4,7,ens4,18541885775,682403,0,0,0,0,0,0,18099041023,649904,0,0,0,0,0,0
[NT-INFO] Network Stats,4,7,lo,219684,1070,0,0,0,0,0,0,219684,1070,0,0,0,0,0,0
[PI-INFO] Paramount Iteration,3,7,7.137669,0.640528
[RU-INFO] Resources Stats,3,7,4.880637,1.789300,211576,0,0,0,1868,19,0,800,0,0,0,0,2227,468
[NT-INFO] Network Stats,3,7,ens4,18392228101,695877,0,0,0,0,0,0,18316447396,683783,0,0,0,0,0,0
[NT-INFO] Network Stats,3,7,lo,231986,1118,0,0,0,0,0,0,231986,1118,0,0,0,0,0,0
[PI-INFO] Paramount Iteration,1,8,7.729672,0.771170
[RU-INFO] Resources Stats,1,8,5.215150,2.050811,211336,0,0,0,1853,29,0,2272,0,0,0,0,2225,474
[NT-INFO] Network Stats,1,8,ens4,18528364939,702260,0,0,0,0,0,0,18453282704,689713,0,0,0,0,0,0
[NT-INFO] Network Stats,1,8,lo,231986,1118,0,0,0,0,0,0,231986,1118,0,0,0,0,0,0
[PI-INFO] Paramount Iteration,2,8,7.738482,0.618443
[RU-INFO] Resources Stats,2,8,5.266085,2.010905,213560,0,0,0,1855,21,0,1656,0,0,0,0,2226,347
[NT-INFO] Network Stats,2,8,ens4,18528364939,702260,0,0,0,0,0,0,18453282704,689713,0,0,0,0,0,0
[NT-INFO] Network Stats,2,8,lo,231986,1118,0,0,0,0,0,0,231986,1118,0,0,0,0,0,0
[PI-INFO] Paramount Iteration,5,8,7.739668,0.612257
[RU-INFO] Resources Stats,5,8,5.193239,2.078888,213336,0,0,0,1879,32,0,2256,0,0,0,0,2268,639
[PI-INFO] Paramount Iteration,4,8,7.740038,0.609068
[RU-INFO] Resources Stats,4,8,5.197301,2.086916,213168,0,0,0,1868,21,0,1648,0,0,0,0,2275,356
[NT-INFO] Network Stats,4,8,ens4,18678849553,688850,0,0,0,0,0,0,18235225861,656079,0,0,0,0,0,0
[NT-INFO] Network Stats,4,8,lo,219684,1070,0,0,0,0,0,0,219684,1070,0,0,0,0,0,0
[NT-INFO] Network Stats,5,8,ens4,18678849553,688850,0,0,0,0,0,0,18235016621,656075,0,0,0,0,0,0
[NT-INFO] Network Stats,5,8,lo,219684,1070,0,0,0,0,0,0,219684,1070,0,0,0,0,0,0
[PI-INFO] Paramount Iteration,6,8,7.740795,0.616880
[RU-INFO] Resources Stats,6,8,5.202431,2.073780,211596,0,0,0,1863,27,0,1416,0,0,0,0,2255,382
[NT-INFO] Network Stats,6,8,ens4,18678849883,688855,0,0,0,0,0,0,18235227028,656083,0,0,0,0,0,0
[NT-INFO] Network Stats,6,8,lo,219684,1070,0,0,0,0,0,0,219684,1070,0,0,0,0,0,0
[PI-INFO] Paramount Iteration,3,8,7.748795,0.611126
[RU-INFO] Resources Stats,3,8,5.194141,2.085647,211576,0,0,0,1882,19,0,800,0,0,0,0,2227,503
[NT-INFO] Network Stats,3,8,ens4,18528367264,702269,0,0,0,0,0,0,18453283298,689722,0,0,0,0,0,0
[NT-INFO] Network Stats,3,8,lo,231986,1118,0,0,0,0,0,0,231986,1118,0,0,0,0,0,0
[PI-INFO] Paramount Iteration,0,8,7.751055,0.616986
[RU-INFO] Resources Stats,0,8,5.324025,1.966964,213640,0,0,0,1870,25,0,1808,0,0,0,0,2224,228
[NT-INFO] Network Stats,0,8,ens4,18528367264,702269,0,0,0,0,0,0,18453283298,689722,0,0,0,0,0,0
[NT-INFO] Network Stats,0,8,lo,231986,1118,0,0,0,0,0,0,231986,1118,0,0,0,0,0,0
        9
[PI-INFO] Paramount Iteration,7,8,7.750411,0.621832
[RU-INFO] Resources Stats,7,8,5.221632,2.065481,213712,0,0,0,1869,22,0,1272,0,0,0,0,2258,381
[NT-INFO] Network Stats,7,8,ens4,18678850147,688859,0,0,0,0,0,0,18235227790,656087,0,0,0,0,0,0
[NT-INFO] Network Stats,7,8,lo,219684,1070,0,0,0,0,0,0,219684,1070,0,0,0,0,0,0
[PI-INFO] Paramount Iteration,1,9,8.219570,0.489898
[RU-INFO] Resources Stats,1,9,5.530943,2.224401,211336,0,0,0,1854,29,0,2272,0,0,0,0,2225,497
[NT-INFO] Network Stats,1,9,ens4,18664400343,708587,0,0,0,0,0,0,18589155352,695657,0,0,0,0,0,0
[NT-INFO] Network Stats,1,9,lo,231986,1118,0,0,0,0,0,0,231986,1118,0,0,0,0,0,0
[PI-INFO] Paramount Iteration,2,9,8.220425,0.481943
[RU-INFO] Resources Stats,2,9,5.555126,2.203587,213560,0,0,0,1856,21,0,1656,0,0,0,0,2226,354
[NT-INFO] Network Stats,2,9,ens4,18664400343,708587,0,0,0,0,0,0,18589155352,695657,0,0,0,0,0,0
[NT-INFO] Network Stats,2,9,lo,231986,1118,0,0,0,0,0,0,231986,1118,0,0,0,0,0,0
[PI-INFO] Paramount Iteration,4,9,8.218282,0.478244
[RU-INFO] Resources Stats,4,9,5.469825,2.291089,213168,0,0,0,1868,21,0,1648,0,0,0,0,2275,430
[NT-INFO] Network Stats,4,9,ens4,18814402815,695331,0,0,0,0,0,0,18370937273,661666,0,0,0,0,0,0
[NT-INFO] Network Stats,4,9,lo,219684,1070,0,0,0,0,0,0,219684,1070,0,0,0,0,0,0
[PI-INFO] Paramount Iteration,5,9,8.219321,0.479653
[RU-INFO] Resources Stats,5,9,5.484752,2.266393,213336,0,0,0,1879,32,0,2256,0,0,0,0,2268,649
[NT-INFO] Network Stats,5,9,ens4,18814403079,695335,0,0,0,0,0,0,18371067637,661671,0,0,0,0,0,0
[NT-INFO] Network Stats,5,9,lo,219684,1070,0,0,0,0,0,0,219684,1070,0,0,0,0,0,0
[PI-INFO] Paramount Iteration,3,9,8.223793,0.474998
[RU-INFO] Resources Stats,3,9,5.486591,2.265766,211576,0,0,0,1883,19,0,800,0,0,0,0,2227,570
[NT-INFO] Network Stats,3,9,ens4,18664402197,708595,0,0,0,0,0,0,18589155814,695664,0,0,0,0,0,0
[NT-INFO] Network Stats,3,9,lo,231986,1118,0,0,0,0,0,0,231986,1118,0,0,0,0,0,0
[PI-INFO] Paramount Iteration,6,9,8.221428,0.480633
[RU-INFO] Resources Stats,6,9,5.494529,2.261748,211596,0,0,0,1863,27,0,1416,0,0,0,0,2255,393
[NT-INFO] Network Stats,6,9,ens4,18814403343,695339,0,0,0,0,0,0,18371068564,661675,0,0,0,0,0,0
[NT-INFO] Network Stats,6,9,lo,219684,1070,0,0,0,0,0,0,219684,1070,0,0,0,0,0,0
[PI-INFO] Paramount Iteration,0,9,8.228362,0.477307
[RU-INFO] Resources Stats,0,9,5.632211,2.135112,213640,0,0,0,1870,25,0,1808,0,0,0,0,2224,251
[NT-INFO] Network Stats,0,9,ens4,18664403124,708599,0,0,0,0,0,0,18589156078,695668,0,0,0,0,0,0
[NT-INFO] Network Stats,0,9,lo,231986,1118,0,0,0,0,0,0,231986,1118,0,0,0,0,0,0
        10
[PI-INFO] Paramount Iteration,7,9,8.227826,0.477415
[RU-INFO] Resources Stats,7,9,5.489506,2.273310,213712,0,0,0,1869,22,0,1272,0,0,0,0,2258,411
[NT-INFO] Network Stats,7,9,ens4,18814403607,695343,0,0,0,0,0,0,18371069491,661679,0,0,0,0,0,0
[NT-INFO] Network Stats,7,9,lo,219684,1070,0,0,0,0,0,0,219684,1070,0,0,0,0,0,0
[PI-INFO] Paramount Iteration,1,10,8.723959,0.504389
[RU-INFO] Resources Stats,1,10,5.866766,2.392390,211336,0,0,0,1854,29,0,2272,0,0,0,0,2225,520
[NT-INFO] Network Stats,1,10,ens4,18799743277,715274,0,0,0,0,0,0,18728197830,701578,0,0,0,0,0,0
[NT-INFO] Network Stats,1,10,lo,231986,1118,0,0,0,0,0,0,231986,1118,0,0,0,0,0,0
[PI-INFO] Paramount Iteration,2,10,8.727641,0.507216
[RU-INFO] Resources Stats,2,10,5.855967,2.408211,213560,0,0,0,1856,21,0,1656,0,0,0,0,2226,393
[NT-INFO] Network Stats,2,10,ens4,18799743277,715274,0,0,0,0,0,0,18728197830,701578,0,0,0,0,0,0
[NT-INFO] Network Stats,2,10,lo,231986,1118,0,0,0,0,0,0,231986,1118,0,0,0,0,0,0
[PI-INFO] Paramount Iteration,6,10,8.732581,0.511153
[RU-INFO] Resources Stats,6,10,5.793566,2.473253,211596,0,0,0,1864,27,0,1416,0,0,0,0,2255,419
[NT-INFO] Network Stats,6,10,ens4,18953555911,701797,0,0,0,0,0,0,18506139847,667869,0,0,0,0,0,0
[NT-INFO] Network Stats,6,10,lo,219684,1070,0,0,0,0,0,0,219684,1070,0,0,0,0,0,0
[PI-INFO] Paramount Iteration,5,10,8.733333,0.514012
[RU-INFO] Resources Stats,5,10,5.790230,2.474695,213336,0,0,0,1880,32,0,2256,0,0,0,0,2268,658
[NT-INFO] Network Stats,5,10,ens4,18953556175,701801,0,0,0,0,0,0,18506399700,667876,0,0,0,0,0,0
[NT-INFO] Network Stats,5,10,lo,219684,1070,0,0,0,0,0,0,219684,1070,0,0,0,0,0,0
[PI-INFO] Paramount Iteration,4,10,8.739423,0.521141
[RU-INFO] Resources Stats,4,10,5.736869,2.542612,213168,0,0,0,1869,21,0,1648,0,0,0,0,2275,493
[NT-INFO] Network Stats,4,10,ens4,18953556439,701805,0,0,0,0,0,0,18506400879,667881,0,0,0,0,0,0
[NT-INFO] Network Stats,4,10,lo,219684,1070,0,0,0,0,0,0,219684,1070,0,0,0,0,0,0
[PI-INFO] Paramount Iteration,0,10,8.745352,0.516990
[RU-INFO] Resources Stats,0,10,5.932586,2.351403,213640,0,0,0,1870,25,0,1808,0,0,0,0,2224,262
[NT-INFO] Network Stats,0,10,ens4,18799746070,715286,0,0,0,0,0,0,18728198622,701590,0,0,0,0,0,0
[NT-INFO] Network Stats,0,10,lo,231986,1118,0,0,0,0,0,0,231986,1118,0,0,0,0,0,0
[PI-INFO] Paramount Iteration,3,10,8.746339,0.522546
[RU-INFO] Resources Stats,3,10,5.797511,2.474937,211576,0,0,0,1883,19,0,800,0,0,0,0,2227,627
[NT-INFO] Network Stats,3,10,ens4,18799746070,715286,0,0,0,0,0,0,18728198622,701590,0,0,0,0,0,0
[NT-INFO] Network Stats,3,10,lo,231986,1118,0,0,0,0,0,0,231986,1118,0,0,0,0,0,0
[PI-INFO] Paramount Iteration,7,10,8.748262,0.520436
[RU-INFO] Resources Stats,7,10,5.829354,2.453203,213712,0,0,0,1870,22,0,1272,0,0,0,0,2258,436
[NT-INFO] Network Stats,7,10,ens4,18953556703,701809,0,0,0,0,0,0,18506401810,667885,0,0,0,0,0,0
[NT-INFO] Network Stats,7,10,lo,219684,1070,0,0,0,0,0,0,219684,1070,0,0,0,0,0,0
[PI-INFO] PI avg,3,0.526633,10
[PI-INFO] Beta,3,1.713242
[PI-INFO] PI avg,2,0.526279,10
[PI-INFO] Beta,2,1.714572
[PI-INFO] PI avg,5,0.526869,10
[PI-INFO] Beta,5,1.722116
[PI-INFO] PI avg,1,0.526193,10
[PI-INFO] Beta,1,1.727258


 IS Benchmark Completed
 Class           =                        C
 Size            =                134217728
 Iterations      =                       10
 Time in seconds =                     5.27
 Total processes =                        8
 Active procs    =                        8
 Mop/s total     =                   254.73
 Mop/s/process   =                    31.84
 Operation type  =              keys ranked
 Verification    =               SUCCESSFUL
 Version         =                      3.4
 Compile date    =              20 May 2021

 Compile options:
    MPICC        = mpicc
    CLINK        = $(MPICC)
    CMPI_LIB     = (none)
    CMPI_INC     = (none)
    CFLAGS       = -O3
    CLINKFLAGS   = $(CFLAGS) -O ../../utils/obj/*.o


 Please send feedbacks and/or the results of this run to:

 NPB Development Team
 npb@nas.nasa.gov


[PI-INFO] PI avg,0,0.525773,10
[PI-INFO] Beta,0,1.741706
[PI-INFO] Total time,9.157412
[PI-INFO] PI avg,7,0.526458,10
[PI-INFO] Beta,7,1.738568
[PI-INFO] PI avg,6,0.526519,10
[PI-INFO] Beta,6,1.738515
[PI-INFO] PI avg,4,0.526436,10
[PI-INFO] Beta,4,1.738805
