
Program received signal SIGSEGV: Segmentation fault - invalid memory reference.

Backtrace for this error:

Program received signal SIGSEGV: Segmentation fault - invalid memory reference.

Program received signal SIGSEGV: Segmentation fault - invalid memory reference.

Backtrace for this error:

Program received signal SIGSEGV: Segmentation fault - invalid memory reference.

Backtrace for this error:

Backtrace for this error:

Program received signal SIGSEGV: Segmentation fault - invalid memory reference.

Program received signal SIGSEGV: Segmentation fault - invalid memory reference.

Backtrace for this error:

Backtrace for this error:

Program received signal SIGSEGV: Segmentation fault - invalid memory reference.

Backtrace for this error:

Program received signal SIGSEGV: Segmentation fault - invalid memory reference.

Backtrace for this error:
#0  0x7fe78f5db8da
#1  0x7fe78f5daae3
#2  0x7fe78f23283f
#3  0x7fe78f357b0d
#4  0x555d16ca2560
#5  0x555d16caea63
#6  0x555d16ca140e
#7  0x7fe78f21f09a
#8  0x555d16ca1449
#9  0xffffffffffffffff
#0  0x7f6e682fc8da
#1  0x7f6e682fbae3
#2  0x7f6e67f5383f
#3  0x7f6e68078b0d
#4  0x5652d86e3560
#5  0x5652d86efa63
#6  0x5652d86e240e
#7  0x7f6e67f4009a
#8  0x5652d86e2449
#9  0xffffffffffffffff
#0  0x7fe7442d38da
#0  0x7f9f607368da
#1  0x7f9f60735ae3
#2  0x7f9f6038d83f
#3  0x7f9f604b2b0d
#4  0x558dd74ff560
#5  0x558dd750ba63
#6  0x558dd74fe40e
#7  0x7f9f6037a09a
#8  0x558dd74fe449
#9  0xffffffffffffffff
#1  0x7fe7442d2ae3
#2  0x7fe743f2a83f
#3  0x7fe74404fb0d
#4  0x5597f4821560
#5  0x5597f482da63
#6  0x5597f482040e
#7  0x7fe743f1709a
#8  0x5597f4820449
#9  0xffffffffffffffff
--------------------------------------------------------------------------
Primary job  terminated normally, but 1 process returned
a non-zero exit code. Per user-direction, the job has been aborted.
--------------------------------------------------------------------------
#0  0x7f4dc14298da
#1  0x7f4dc1428ae3
#2  0x7f4dc108083f
#3  0x7f4dc11a5b0d
#4  0x562d4899d560
#5  0x562d489a9a63
#6  0x562d4899c40e
#7  0x7f4dc106d09a
#8  0x562d4899c449
#9  0xffffffffffffffff
#0  0x7f36d08c08da
#1  0x7f36d08bfae3
#2  0x7f36d051783f
#3  0x7f36d063cb0d
#4  0x563623c91560
#5  0x563623c9da63
#6  0x563623c9040e
#7  0x7f36d050409a
#8  0x563623c90449
#9  0xffffffffffffffff
#0  0x7f3c9b6ba8da
#1  0x7f3c9b6b9ae3
#2  0x7f3c9b31183f
#3  0x7f3c9b436b0d
#4  0x55e28efac560
#5  0x55e28efb8a63
#6  0x55e28efab40e
#7  0x7f3c9b2fe09a
#8  0x55e28efab449
#9  0xffffffffffffffff
#0  0x7fe8540ba8da
#1  0x7fe8540b9ae3
#2  0x7fe853d1183f
#3  0x7fe853e36b0d
#4  0x562393bdc560
#5  0x562393be8a63
#6  0x562393bdb40e
#7  0x7fe853cfe09a
#8  0x562393bdb449
#9  0xffffffffffffffff
--------------------------------------------------------------------------
mpirun noticed that process rank 0 with PID 0 on node instance-0 exited on signal 11 (Segmentation fault).
--------------------------------------------------------------------------
